{
"type": "FeatureCollection",
"name": "NansenLegacyStations-sorted",
"crs": { "type": "name", "properties": { "name": "urn:ogc:def:crs:OGC:1.3:CRS84" } },
"features": [
{ "type": "Feature", "properties": { "stationName": "P1 (NLEG01)", "decimalLatitude": 76.0, "decimalLongitude": 31.22 }, "geometry": { "type": "Point", "coordinates": [ 31.22, 76.0 ] } },
{ "type": "Feature", "properties": { "stationName": "NLEG02", "decimalLatitude": 76.5, "decimalLongitude": 31.22 }, "geometry": { "type": "Point", "coordinates": [ 31.22, 76.5 ] } },
{ "type": "Feature", "properties": { "stationName": "NLEG03", "decimalLatitude": 77.0, "decimalLongitude": 34.0 }, "geometry": { "type": "Point", "coordinates": [ 34.0, 77.0 ] } },
{ "type": "Feature", "properties": { "stationName": "P2 (NLEG04)", "decimalLatitude": 77.5, "decimalLongitude": 34.0 }, "geometry": { "type": "Point", "coordinates": [ 34.0, 77.5 ] } },
{ "type": "Feature", "properties": { "stationName": "NLEG05", "decimalLatitude": 78.0, "decimalLongitude": 34.0 }, "geometry": { "type": "Point", "coordinates": [ 34.0, 78.0 ] } },
{ "type": "Feature", "properties": { "stationName": "NLEG06", "decimalLatitude": 78.5, "decimalLongitude": 34.0 }, "geometry": { "type": "Point", "coordinates": [ 34.0, 78.5 ] } },
{ "type": "Feature", "properties": { "stationName": "P3 (NLEG07)", "decimalLatitude": 78.75, "decimalLongitude": 34.0 }, "geometry": { "type": "Point", "coordinates": [ 34.0, 78.75 ] } },
{ "type": "Feature", "properties": { "stationName": "NLEG08", "decimalLatitude": 79.0, "decimalLongitude": 34.0 }, "geometry": { "type": "Point", "coordinates": [ 34.0, 79.0 ] } },
{ "type": "Feature", "properties": { "stationName": "NLEG09", "decimalLatitude": 79.25, "decimalLongitude": 34.0 }, "geometry": { "type": "Point", "coordinates": [ 34.0, 79.25 ] } },
{ "type": "Feature", "properties": { "stationName": "NLEG10", "decimalLatitude": 79.5, "decimalLongitude": 34.0 }, "geometry": { "type": "Point", "coordinates": [ 34.0, 79.5 ] } },
{ "type": "Feature", "properties": { "stationName": "P4 (NLEG11)", "decimalLatitude": 79.75, "decimalLongitude": 34.0 }, "geometry": { "type": "Point", "coordinates": [ 34.0, 79.75 ] } },
{ "type": "Feature", "properties": { "stationName": "NLEG12", "decimalLatitude": 80.0, "decimalLongitude": 34.0 }, "geometry": { "type": "Point", "coordinates": [ 34.0, 80.0 ] } },
{ "type": "Feature", "properties": { "stationName": "P5 (NLEG13)", "decimalLatitude": 80.5, "decimalLongitude": 34.0 }, "geometry": { "type": "Point", "coordinates": [ 34.0, 80.5 ] } },
{ "type": "Feature", "properties": { "stationName": "NLEG14", "decimalLatitude": 81.0, "decimalLongitude": 34.0 }, "geometry": { "type": "Point", "coordinates": [ 34.0, 81.0 ] } },
{ "type": "Feature", "properties": { "stationName": "NLEG15", "decimalLatitude": 81.3098, "decimalLongitude": 31.3487 }, "geometry": { "type": "Point", "coordinates": [ 31.3487, 81.3098 ] } },
{ "type": "Feature", "properties": { "stationName": "NLEG16", "decimalLatitude": 81.3822, "decimalLongitude": 31.2933 }, "geometry": { "type": "Point", "coordinates": [ 31.2933, 81.3822 ] } },
{ "type": "Feature", "properties": { "stationName": "NLEG17", "decimalLatitude": 81.4107, "decimalLongitude": 31.2468 }, "geometry": { "type": "Point", "coordinates": [ 31.2468, 81.4107 ] } },
{ "type": "Feature", "properties": { "stationName": "NLEG18", "decimalLatitude": 81.4318, "decimalLongitude": 31.1448 }, "geometry": { "type": "Point", "coordinates": [ 31.1448, 81.4318 ] } },
{ "type": "Feature", "properties": { "stationName": "NLEG19", "decimalLatitude": 81.458, "decimalLongitude": 31.0775 }, "geometry": { "type": "Point", "coordinates": [ 31.0775, 81.458 ] } },
{ "type": "Feature", "properties": { "stationName": "NLEG20", "decimalLatitude": 81.5025, "decimalLongitude": 30.9618 }, "geometry": { "type": "Point", "coordinates": [ 30.9618, 81.5025 ] } },
{ "type": "Feature", "properties": { "stationName": "P6 (NLEG21/NPAL15)", "decimalLatitude": 81.5463, "decimalLongitude": 30.8548 }, "geometry": { "type": "Point", "coordinates": [ 30.8548, 81.5463 ] } },
{ "type": "Feature", "properties": { "stationName": "NLEG22", "decimalLatitude": 81.5895, "decimalLongitude": 30.7667 }, "geometry": { "type": "Point", "coordinates": [ 30.7667, 81.5895 ] } },
{ "type": "Feature", "properties": { "stationName": "NLEG23", "decimalLatitude": 81.6165, "decimalLongitude": 30.6647 }, "geometry": { "type": "Point", "coordinates": [ 30.6647, 81.6165 ] } },
{ "type": "Feature", "properties": { "stationName": "NLEG24", "decimalLatitude": 81.6828, "decimalLongitude": 30.5258 }, "geometry": { "type": "Point", "coordinates": [ 30.5258, 81.6828 ] } },
{ "type": "Feature", "properties": { "stationName": "P7/ NLEG25", "decimalLatitude": 81.8027, "decimalLongitude": 30.8846 }, "geometry": { "type": "Point", "coordinates": [ 30.8846, 81.8027 ] } },
{ "type": "Feature", "properties": { "stationName": "P7 (NLEG25/NPAL16)", "decimalLatitude": 82.0, "decimalLongitude": 30.0 }, "geometry": { "type": "Point", "coordinates": [ 30.0, 82.0 ] } },
{ "type": "Feature", "properties": { "stationName": "NLEG26", "decimalLatitude": 82.4703, "decimalLongitude": 29.5359 }, "geometry": { "type": "Point", "coordinates": [ 29.5359, 82.4703 ] } },
{ "type": "Feature", "properties": { "stationName": "NLEG27", "decimalLatitude": 82.9469, "decimalLongitude": 27.9103 }, "geometry": { "type": "Point", "coordinates": [ 27.9103, 82.9469 ] } },
{ "type": "Feature", "properties": { "stationName": "NLEG41", "decimalLatitude": 83.1549, "decimalLongitude": -9.6042 }, "geometry": { "type": "Point", "coordinates": [ -9.6042, 83.1549 ] } },
{ "type": "Feature", "properties": { "stationName": "NLEG28", "decimalLatitude": 83.3821, "decimalLongitude": 26.878 }, "geometry": { "type": "Point", "coordinates": [ 26.878, 83.3821 ] } },
{ "type": "Feature", "properties": { "stationName": "NLEG40", "decimalLatitude": 83.8515, "decimalLongitude": -9.5361 }, "geometry": { "type": "Point", "coordinates": [ -9.5361, 83.8515 ] } },
{ "type": "Feature", "properties": { "stationName": "P8/ NLEG29", "decimalLatitude": 83.8994, "decimalLongitude": 25.4114 }, "geometry": { "type": "Point", "coordinates": [ 25.4114, 83.8994 ] } },
{ "type": "Feature", "properties": { "stationName": "NLEG30", "decimalLatitude": 84.1782, "decimalLongitude": 22.0896 }, "geometry": { "type": "Point", "coordinates": [ 22.0896, 84.1782 ] } },
{ "type": "Feature", "properties": { "stationName": "NLEG31", "decimalLatitude": 84.496, "decimalLongitude": 17.9159 }, "geometry": { "type": "Point", "coordinates": [ 17.9159, 84.496 ] } },
{ "type": "Feature", "properties": { "stationName": "NLEG32", "decimalLatitude": 84.8254, "decimalLongitude": 12.3426 }, "geometry": { "type": "Point", "coordinates": [ 12.3426, 84.8254 ] } },
{ "type": "Feature", "properties": { "stationName": "P9/ NLEG33", "decimalLatitude": 85.3707, "decimalLongitude": 7.4551 }, "geometry": { "type": "Point", "coordinates": [ 7.4551, 85.3707 ] } },
{ "type": "Feature", "properties": { "stationName": "NLEG34", "decimalLatitude": 85.747, "decimalLongitude": -2.5438 }, "geometry": { "type": "Point", "coordinates": [ -2.5438, 85.747 ] } },
{ "type": "Feature", "properties": { "stationName": "NLEG35", "decimalLatitude": 86.0051, "decimalLongitude": -10.6921 }, "geometry": { "type": "Point", "coordinates": [ -10.6921, 86.0051 ] } },
{ "type": "Feature", "properties": { "stationName": "P10/ NLEG36", "decimalLatitude": 86.5052, "decimalLongitude": -16.7077 }, "geometry": { "type": "Point", "coordinates": [ -16.7077, 86.5052 ] } },
{ "type": "Feature", "properties": { "stationName": "NLEG39", "decimalLatitude": 86.6043, "decimalLongitude": -11.1007 }, "geometry": { "type": "Point", "coordinates": [ -11.1007, 86.6043 ] } },
{ "type": "Feature", "properties": { "stationName": "NLEG37", "decimalLatitude": 87.0041, "decimalLongitude": -21.5252 }, "geometry": { "type": "Point", "coordinates": [ -21.5252, 87.0041 ] } },
{ "type": "Feature", "properties": { "stationName": "P11/ NLEG38", "decimalLatitude": 87.5009, "decimalLongitude": -17.3716 }, "geometry": { "type": "Point", "coordinates": [ -17.3716, 87.5009 ] } }
]
}
