[
    "input.las",
    {
        "type": "filters.sample",
        "radius": 0.05
        
    },
    {
        "type": "filters.csf"
    },
    {
        "type":"writers.las",
        "filename":"5cm.las"
    }
]
